<?xml version="1.0" encoding="UTF-8" standalone="no"?>
<!-- Created with Inkscape (http://www.inkscape.org/) -->

<svg
   xmlns:dc="http://purl.org/dc/elements/1.1/"
   xmlns:cc="http://creativecommons.org/ns#"
   xmlns:rdf="http://www.w3.org/1999/02/22-rdf-syntax-ns#"
   xmlns:svg="http://www.w3.org/2000/svg"
   xmlns="http://www.w3.org/2000/svg"
   version="1.1"
   width="421.64706"
   height="512"
   viewBox="0 0 357 433.5"
   id="Capa_1"
   xml:space="preserve"><metadata
     id="metadata3230"><rdf:RDF><cc:Work
         rdf:about=""><dc:format>image/svg+xml</dc:format><dc:type
           rdf:resource="http://purl.org/dc/dcmitype/StillImage" /><dc:title></dc:title></cc:Work></rdf:RDF></metadata><defs
     id="defs3228" /><g
     transform="translate(-38.25,0)"
     id="g3191"><g
       id="file-download"><path
         d="m 395.25,153 h -102 V 0 h -153 v 153 h -102 L 216.75,331.5 395.25,153 z m -357,229.5 v 51 h 357 v -51 h -357 z"
         id="path3194"
         style="fill:#00a2b8;fill-opacity:1" /></g></g><g
     transform="translate(-38.25,0)"
     id="g3196" /><g
     transform="translate(-38.25,0)"
     id="g3198" /><g
     transform="translate(-38.25,0)"
     id="g3200" /><g
     transform="translate(-38.25,0)"
     id="g3202" /><g
     transform="translate(-38.25,0)"
     id="g3204" /><g
     transform="translate(-38.25,0)"
     id="g3206" /><g
     transform="translate(-38.25,0)"
     id="g3208" /><g
     transform="translate(-38.25,0)"
     id="g3210" /><g
     transform="translate(-38.25,0)"
     id="g3212" /><g
     transform="translate(-38.25,0)"
     id="g3214" /><g
     transform="translate(-38.25,0)"
     id="g3216" /><g
     transform="translate(-38.25,0)"
     id="g3218" /><g
     transform="translate(-38.25,0)"
     id="g3220" /><g
     transform="translate(-38.25,0)"
     id="g3222" /><g
     transform="translate(-38.25,0)"
     id="g3224" /></svg>