<?xml version="1.0" encoding="UTF-8" standalone="no"?>
<!DOCTYPE svg PUBLIC "-//W3C//DTD SVG 1.1//EN"
 "http://www.w3.org/Graphics/SVG/1.1/DTD/svg11.dtd">
<!-- Generated by graphviz version 2.30.1 (20150306.0020)
 -->
<!-- Title: G Pages: 1 -->
<svg width="354pt" height="368pt"
 viewBox="0.00 0.00 354.00 368.00" xmlns="http://www.w3.org/2000/svg" xmlns:xlink="http://www.w3.org/1999/xlink">
<g id="graph0" class="graph" transform="scale(1 1) rotate(0) translate(4 364)">
<title>G</title>
<polygon fill="white" stroke="white" points="-4,5 -4,-364 351,-364 351,5 -4,5"/>
<!-- ParameterSet -->
<g id="node1" class="node"><title>ParameterSet</title>
<path fill="#fcf2e3" stroke="none" stroke-width="0.5" d="M171.25,-287.5C171.25,-287.5 68.75,-287.5 68.75,-287.5 62.75,-287.5 56.75,-281.5 56.75,-275.5 56.75,-275.5 56.75,-218.5 56.75,-218.5 56.75,-212.5 62.75,-206.5 68.75,-206.5 68.75,-206.5 171.25,-206.5 171.25,-206.5 177.25,-206.5 183.25,-212.5 183.25,-218.5 183.25,-218.5 183.25,-275.5 183.25,-275.5 183.25,-281.5 177.25,-287.5 171.25,-287.5"/>
<text text-anchor="start" x="95" y="-275.1" font-family="Verdana" font-size="8.00">ParameterSet</text>
<text text-anchor="start" x="67" y="-264.6" font-family="Verdana" font-size="8.00" fill="#8b0000">+ publicID: string</text>
<text text-anchor="start" x="67" y="-254.6" font-family="Verdana" font-size="8.00" fill="#8b0000">+ baseID: string</text>
<text text-anchor="start" x="67" y="-244.6" font-family="Verdana" font-size="8.00" fill="#8b0000">+ moduleID: string</text>
<text text-anchor="start" x="67" y="-234.6" font-family="Verdana" font-size="8.00" fill="#8b0000">+ created: datetime &#160;[0..1]</text>
<text text-anchor="start" x="67" y="-224.6" font-family="Verdana" font-size="8.00" fill="#8b0000">+ parameter: Parameter [0..*]</text>
<text text-anchor="start" x="67" y="-214.6" font-family="Verdana" font-size="8.00" fill="#8b0000">+ comment: Comment [0..*]</text>
</g>
<!-- Parameter -->
<g id="node2" class="node"><title>Parameter</title>
<path fill="#fcf2e3" stroke="none" stroke-width="0.5" d="M108,-159.5C108,-159.5 12,-159.5 12,-159.5 6,-159.5 0,-153.5 0,-147.5 0,-147.5 0,-110.5 0,-110.5 0,-104.5 6,-98.5 12,-98.5 12,-98.5 108,-98.5 108,-98.5 114,-98.5 120,-104.5 120,-110.5 120,-110.5 120,-147.5 120,-147.5 120,-153.5 114,-159.5 108,-159.5"/>
<text text-anchor="start" x="40.5" y="-147.1" font-family="Verdana" font-size="8.00">Parameter</text>
<text text-anchor="start" x="10" y="-136.6" font-family="Verdana" font-size="8.00" fill="#8b0000">+ publicID: string</text>
<text text-anchor="start" x="10" y="-126.6" font-family="Verdana" font-size="8.00" fill="#8b0000">+ name: string</text>
<text text-anchor="start" x="10" y="-116.6" font-family="Verdana" font-size="8.00" fill="#8b0000">+ value: string</text>
<text text-anchor="start" x="10" y="-106.6" font-family="Verdana" font-size="8.00" fill="#8b0000">+ comment: Comment [0..*]</text>
</g>
<!-- ParameterSet&#45;&gt;Parameter -->
<g id="edge2" class="edge"><title>ParameterSet&#45;&gt;Parameter</title>
<path fill="none" stroke="#000000" d="M99.5192,-206.404C93.1889,-194.165 86.2278,-180.707 79.9349,-168.541"/>
<polygon fill="#000000" stroke="#000000" points="82.9776,-166.805 75.2745,-159.531 76.76,-170.021 82.9776,-166.805"/>
</g>
<!-- Comment -->
<g id="node3" class="node"><title>Comment</title>
<path fill="#fcf2e3" stroke="none" stroke-width="0.5" d="M140,-51.5C140,-51.5 22,-51.5 22,-51.5 16,-51.5 10,-45.5 10,-39.5 10,-39.5 10,-12.5 10,-12.5 10,-6.5 16,-0.5 22,-0.5 22,-0.5 140,-0.5 140,-0.5 146,-0.5 152,-6.5 152,-12.5 152,-12.5 152,-39.5 152,-39.5 152,-45.5 146,-51.5 140,-51.5"/>
<text text-anchor="start" x="63" y="-39.1" font-family="Verdana" font-size="8.00">Comment</text>
<text text-anchor="start" x="20" y="-28.6" font-family="Verdana" font-size="8.00" fill="#8b0000">+ text: string</text>
<text text-anchor="start" x="20" y="-18.6" font-family="Verdana" font-size="8.00" fill="#8b0000">+ id: string</text>
<text text-anchor="start" x="20" y="-8.6" font-family="Verdana" font-size="8.00" fill="#8b0000">+ creationInfo: CreationInfo &#160;[0..1]</text>
</g>
<!-- ParameterSet&#45;&gt;Comment -->
<g id="edge4" class="edge"><title>ParameterSet&#45;&gt;Comment</title>
<path fill="none" stroke="#000000" d="M130.49,-206.212C137.184,-173.545 142.35,-126.554 129,-88 125.491,-77.8675 119.527,-68.1406 112.972,-59.546"/>
<polygon fill="#000000" stroke="#000000" points="115.594,-57.2231 106.567,-51.6766 110.165,-61.6418 115.594,-57.2231"/>
</g>
<!-- Parameter&#45;&gt;Comment -->
<g id="edge3" class="edge"><title>Parameter&#45;&gt;Comment</title>
<path fill="none" stroke="#000000" d="M66.1871,-98.2429C68.5639,-86.8116 71.2976,-73.664 73.7643,-61.8001"/>
<polygon fill="#000000" stroke="#000000" points="77.2387,-62.2832 75.8477,-51.7801 70.3852,-60.8582 77.2387,-62.2832"/>
</g>
<!-- ConfigModule -->
<g id="node4" class="node"><title>ConfigModule</title>
<path fill="#fcf2e3" stroke="none" stroke-width="0.5" d="M334.25,-282.5C334.25,-282.5 213.75,-282.5 213.75,-282.5 207.75,-282.5 201.75,-276.5 201.75,-270.5 201.75,-270.5 201.75,-223.5 201.75,-223.5 201.75,-217.5 207.75,-211.5 213.75,-211.5 213.75,-211.5 334.25,-211.5 334.25,-211.5 340.25,-211.5 346.25,-217.5 346.25,-223.5 346.25,-223.5 346.25,-270.5 346.25,-270.5 346.25,-276.5 340.25,-282.5 334.25,-282.5"/>
<text text-anchor="start" x="249.5" y="-270.1" font-family="Verdana" font-size="8.00">ConfigModule</text>
<text text-anchor="start" x="212" y="-259.6" font-family="Verdana" font-size="8.00" fill="#8b0000">+ publicID: string</text>
<text text-anchor="start" x="212" y="-249.6" font-family="Verdana" font-size="8.00" fill="#8b0000">+ name: string</text>
<text text-anchor="start" x="212" y="-239.6" font-family="Verdana" font-size="8.00" fill="#8b0000">+ parameterSetID: string</text>
<text text-anchor="start" x="212" y="-229.6" font-family="Verdana" font-size="8.00" fill="#8b0000">+ enabled: boolean</text>
<text text-anchor="start" x="212" y="-219.6" font-family="Verdana" font-size="8.00" fill="#8b0000">+ configStation: ConfigStation [0..*]</text>
</g>
<!-- ConfigStation -->
<g id="node5" class="node"><title>ConfigStation</title>
<path fill="#fcf2e3" stroke="none" stroke-width="0.5" d="M333,-169.5C333,-169.5 215,-169.5 215,-169.5 209,-169.5 203,-163.5 203,-157.5 203,-157.5 203,-100.5 203,-100.5 203,-94.5 209,-88.5 215,-88.5 215,-88.5 333,-88.5 333,-88.5 339,-88.5 345,-94.5 345,-100.5 345,-100.5 345,-157.5 345,-157.5 345,-163.5 339,-169.5 333,-169.5"/>
<text text-anchor="start" x="249.5" y="-157.1" font-family="Verdana" font-size="8.00">ConfigStation</text>
<text text-anchor="start" x="213" y="-146.6" font-family="Verdana" font-size="8.00" fill="#8b0000">+ publicID: string</text>
<text text-anchor="start" x="213" y="-136.6" font-family="Verdana" font-size="8.00" fill="#8b0000">+ networkCode: string</text>
<text text-anchor="start" x="213" y="-126.6" font-family="Verdana" font-size="8.00" fill="#8b0000">+ stationCode: string</text>
<text text-anchor="start" x="213" y="-116.6" font-family="Verdana" font-size="8.00" fill="#8b0000">+ enabled: boolean</text>
<text text-anchor="start" x="213" y="-106.6" font-family="Verdana" font-size="8.00" fill="#8b0000">+ creationInfo: CreationInfo &#160;[0..1]</text>
<text text-anchor="start" x="213" y="-96.6" font-family="Verdana" font-size="8.00" fill="#8b0000">+ setup: Setup [0..*]</text>
</g>
<!-- ConfigModule&#45;&gt;ConfigStation -->
<g id="edge6" class="edge"><title>ConfigModule&#45;&gt;ConfigStation</title>
<path fill="none" stroke="#000000" d="M274,-211.196C274,-201.284 274,-190.289 274,-179.675"/>
<polygon fill="#000000" stroke="#000000" points="277.5,-179.662 274,-169.662 270.5,-179.662 277.5,-179.662"/>
</g>
<!-- Setup -->
<g id="node6" class="node"><title>Setup</title>
<path fill="#fcf2e3" stroke="none" stroke-width="0.5" d="M317,-51.5C317,-51.5 231,-51.5 231,-51.5 225,-51.5 219,-45.5 219,-39.5 219,-39.5 219,-12.5 219,-12.5 219,-6.5 225,-0.5 231,-0.5 231,-0.5 317,-0.5 317,-0.5 323,-0.5 329,-6.5 329,-12.5 329,-12.5 329,-39.5 329,-39.5 329,-45.5 323,-51.5 317,-51.5"/>
<text text-anchor="start" x="263" y="-39.1" font-family="Verdana" font-size="8.00">Setup</text>
<text text-anchor="start" x="229" y="-28.6" font-family="Verdana" font-size="8.00" fill="#8b0000">+ name: string</text>
<text text-anchor="start" x="229" y="-18.6" font-family="Verdana" font-size="8.00" fill="#8b0000">+ parameterSetID: string</text>
<text text-anchor="start" x="229" y="-8.6" font-family="Verdana" font-size="8.00" fill="#8b0000">+ enabled: boolean</text>
</g>
<!-- ConfigStation&#45;&gt;Setup -->
<g id="edge7" class="edge"><title>ConfigStation&#45;&gt;Setup</title>
<path fill="none" stroke="#000000" d="M274,-88.372C274,-79.571 274,-70.3076 274,-61.7208"/>
<polygon fill="#000000" stroke="#000000" points="277.5,-61.6589 274,-51.6589 270.5,-61.659 277.5,-61.6589"/>
</g>
<!-- Config -->
<g id="node7" class="node"><title>Config</title>
<path fill="#fcf2e3" stroke="none" stroke-width="0.5" d="M212,-360C212,-360 182,-360 182,-360 176,-360 170,-354 170,-348 170,-348 170,-336 170,-336 170,-330 176,-324 182,-324 182,-324 212,-324 212,-324 218,-324 224,-330 224,-336 224,-336 224,-348 224,-348 224,-354 218,-360 212,-360"/>
<text text-anchor="middle" x="197" y="-340.1" font-family="Verdana" font-size="8.00">Config</text>
</g>
<!-- Config&#45;&gt;ParameterSet -->
<g id="edge1" class="edge"><title>Config&#45;&gt;ParameterSet</title>
<path fill="none" stroke="#000000" d="M182.877,-323.942C176.165,-315.836 167.774,-305.701 159.33,-295.502"/>
<polygon fill="#000000" stroke="#000000" points="161.962,-293.193 152.889,-287.723 156.57,-297.657 161.962,-293.193"/>
</g>
<!-- Config&#45;&gt;ConfigModule -->
<g id="edge5" class="edge"><title>Config&#45;&gt;ConfigModule</title>
<path fill="none" stroke="#000000" d="M211.123,-323.942C218.958,-314.479 229.082,-302.252 238.907,-290.385"/>
<polygon fill="#000000" stroke="#000000" points="241.612,-292.606 245.294,-282.671 236.221,-288.142 241.612,-292.606"/>
</g>
</g>
</svg>
