<?xml version="1.0" encoding="UTF-8" standalone="no"?>
<!DOCTYPE svg PUBLIC "-//W3C//DTD SVG 1.1//EN"
 "http://www.w3.org/Graphics/SVG/1.1/DTD/svg11.dtd">
<!-- Generated by graphviz version 2.30.1 (20150306.0020)
 -->
<!-- Title: G Pages: 1 -->
<svg width="314pt" height="390pt"
 viewBox="0.00 0.00 314.00 390.00" xmlns="http://www.w3.org/2000/svg" xmlns:xlink="http://www.w3.org/1999/xlink">
<g id="graph0" class="graph" transform="scale(1 1) rotate(0) translate(4 386)">
<title>G</title>
<polygon fill="white" stroke="white" points="-4,5 -4,-386 311,-386 311,5 -4,5"/>
<!-- ArclinkRequest -->
<g id="node1" class="node"><title>ArclinkRequest</title>
<path fill="#fcf2e3" stroke="none" stroke-width="0.5" d="M189.25,-309.5C189.25,-309.5 26.75,-309.5 26.75,-309.5 20.75,-309.5 14.75,-303.5 14.75,-297.5 14.75,-297.5 14.75,-150.5 14.75,-150.5 14.75,-144.5 20.75,-138.5 26.75,-138.5 26.75,-138.5 189.25,-138.5 189.25,-138.5 195.25,-138.5 201.25,-144.5 201.25,-150.5 201.25,-150.5 201.25,-297.5 201.25,-297.5 201.25,-303.5 195.25,-309.5 189.25,-309.5"/>
<text text-anchor="start" x="81.5" y="-297.1" font-family="Verdana" font-size="8.00">ArclinkRequest</text>
<text text-anchor="start" x="25" y="-286.6" font-family="Verdana" font-size="8.00" fill="#8b0000">+ publicID: string</text>
<text text-anchor="start" x="25" y="-276.6" font-family="Verdana" font-size="8.00" fill="#8b0000">+ requestID: string</text>
<text text-anchor="start" x="25" y="-266.6" font-family="Verdana" font-size="8.00" fill="#8b0000">+ userID: string</text>
<text text-anchor="start" x="25" y="-256.6" font-family="Verdana" font-size="8.00" fill="#8b0000">+ userIP: string</text>
<text text-anchor="start" x="25" y="-246.6" font-family="Verdana" font-size="8.00" fill="#8b0000">+ clientID: string</text>
<text text-anchor="start" x="25" y="-236.6" font-family="Verdana" font-size="8.00" fill="#8b0000">+ clientIP: string</text>
<text text-anchor="start" x="25" y="-226.6" font-family="Verdana" font-size="8.00" fill="#8b0000">+ type: string</text>
<text text-anchor="start" x="25" y="-216.6" font-family="Verdana" font-size="8.00" fill="#8b0000">+ created: datetime</text>
<text text-anchor="start" x="25" y="-206.6" font-family="Verdana" font-size="8.00" fill="#8b0000">+ status: string</text>
<text text-anchor="start" x="25" y="-196.6" font-family="Verdana" font-size="8.00" fill="#8b0000">+ message: string</text>
<text text-anchor="start" x="25" y="-186.6" font-family="Verdana" font-size="8.00" fill="#8b0000">+ label: string</text>
<text text-anchor="start" x="25" y="-176.6" font-family="Verdana" font-size="8.00" fill="#8b0000">+ header: string</text>
<text text-anchor="start" x="25" y="-166.6" font-family="Verdana" font-size="8.00" fill="#8b0000">+ summary: ArclinkRequestSummary &#160;[0..1]</text>
<text text-anchor="start" x="25" y="-156.6" font-family="Verdana" font-size="8.00" fill="#8b0000">+ arclinkStatusLine: ArclinkStatusLine [0..*]</text>
<text text-anchor="start" x="25" y="-146.6" font-family="Verdana" font-size="8.00" fill="#8b0000">+ arclinkRequestLine: ArclinkRequestLine [0..*]</text>
</g>
<!-- ArclinkStatusLine -->
<g id="node2" class="node"><title>ArclinkStatusLine</title>
<path fill="#fcf2e3" stroke="none" stroke-width="0.5" d="M74,-86.5C74,-86.5 12,-86.5 12,-86.5 6,-86.5 0,-80.5 0,-74.5 0,-74.5 0,-27.5 0,-27.5 0,-21.5 6,-15.5 12,-15.5 12,-15.5 74,-15.5 74,-15.5 80,-15.5 86,-21.5 86,-27.5 86,-27.5 86,-74.5 86,-74.5 86,-80.5 80,-86.5 74,-86.5"/>
<text text-anchor="start" x="12.5" y="-74.1" font-family="Verdana" font-size="8.00">ArclinkStatusLine</text>
<text text-anchor="start" x="10" y="-63.6" font-family="Verdana" font-size="8.00" fill="#8b0000">+ type: string</text>
<text text-anchor="start" x="10" y="-53.6" font-family="Verdana" font-size="8.00" fill="#8b0000">+ status: string</text>
<text text-anchor="start" x="10" y="-43.6" font-family="Verdana" font-size="8.00" fill="#8b0000">+ size: int &#160;[0..1]</text>
<text text-anchor="start" x="10" y="-33.6" font-family="Verdana" font-size="8.00" fill="#8b0000">+ message: string</text>
<text text-anchor="start" x="10" y="-23.6" font-family="Verdana" font-size="8.00" fill="#8b0000">+ volumeID: string</text>
</g>
<!-- ArclinkRequest&#45;&gt;ArclinkStatusLine -->
<g id="edge2" class="edge"><title>ArclinkRequest&#45;&gt;ArclinkStatusLine</title>
<path fill="none" stroke="#000000" d="M75.7856,-138.251C70.24,-123.662 64.6833,-109.044 59.7614,-96.0953"/>
<polygon fill="#000000" stroke="#000000" points="62.9568,-94.6512 56.132,-86.5473 56.4136,-97.1384 62.9568,-94.6512"/>
</g>
<!-- ArclinkRequestLine -->
<g id="node3" class="node"><title>ArclinkRequestLine</title>
<path fill="#fcf2e3" stroke="none" stroke-width="0.5" d="M229.25,-101.5C229.25,-101.5 116.75,-101.5 116.75,-101.5 110.75,-101.5 104.75,-95.5 104.75,-89.5 104.75,-89.5 104.75,-12.5 104.75,-12.5 104.75,-6.5 110.75,-0.5 116.75,-0.5 116.75,-0.5 229.25,-0.5 229.25,-0.5 235.25,-0.5 241.25,-6.5 241.25,-12.5 241.25,-12.5 241.25,-89.5 241.25,-89.5 241.25,-95.5 235.25,-101.5 229.25,-101.5"/>
<text text-anchor="start" x="139" y="-89.1" font-family="Verdana" font-size="8.00">ArclinkRequestLine</text>
<text text-anchor="start" x="115" y="-78.6" font-family="Verdana" font-size="8.00" fill="#8b0000">+ start: datetime</text>
<text text-anchor="start" x="115" y="-68.6" font-family="Verdana" font-size="8.00" fill="#8b0000">+ end: datetime</text>
<text text-anchor="start" x="115" y="-58.6" font-family="Verdana" font-size="8.00" fill="#8b0000">+ streamID: WaveformStreamID</text>
<text text-anchor="start" x="115" y="-48.6" font-family="Verdana" font-size="8.00" fill="#8b0000">+ restricted: boolean &#160;[0..1]</text>
<text text-anchor="start" x="115" y="-38.6" font-family="Verdana" font-size="8.00" fill="#8b0000">+ shared: boolean &#160;[0..1]</text>
<text text-anchor="start" x="115" y="-28.6" font-family="Verdana" font-size="8.00" fill="#8b0000">+ netClass: string</text>
<text text-anchor="start" x="115" y="-18.6" font-family="Verdana" font-size="8.00" fill="#8b0000">+ constraints: string</text>
<text text-anchor="start" x="115" y="-8.6" font-family="Verdana" font-size="8.00" fill="#8b0000">+ status: ArclinkStatusLine</text>
</g>
<!-- ArclinkRequest&#45;&gt;ArclinkRequestLine -->
<g id="edge3" class="edge"><title>ArclinkRequest&#45;&gt;ArclinkRequestLine</title>
<path fill="none" stroke="#000000" d="M140.214,-138.251C143.647,-129.221 147.084,-120.179 150.372,-111.529"/>
<polygon fill="#000000" stroke="#000000" points="153.731,-112.542 154.013,-101.951 147.188,-110.054 153.731,-112.542"/>
</g>
<!-- ArclinkUser -->
<g id="node4" class="node"><title>ArclinkUser</title>
<path fill="#fcf2e3" stroke="none" stroke-width="0.5" d="M294.25,-254.5C294.25,-254.5 231.75,-254.5 231.75,-254.5 225.75,-254.5 219.75,-248.5 219.75,-242.5 219.75,-242.5 219.75,-205.5 219.75,-205.5 219.75,-199.5 225.75,-193.5 231.75,-193.5 231.75,-193.5 294.25,-193.5 294.25,-193.5 300.25,-193.5 306.25,-199.5 306.25,-205.5 306.25,-205.5 306.25,-242.5 306.25,-242.5 306.25,-248.5 300.25,-254.5 294.25,-254.5"/>
<text text-anchor="start" x="243" y="-242.1" font-family="Verdana" font-size="8.00">ArclinkUser</text>
<text text-anchor="start" x="230" y="-231.6" font-family="Verdana" font-size="8.00" fill="#8b0000">+ publicID: string</text>
<text text-anchor="start" x="230" y="-221.6" font-family="Verdana" font-size="8.00" fill="#8b0000">+ name: string</text>
<text text-anchor="start" x="230" y="-211.6" font-family="Verdana" font-size="8.00" fill="#8b0000">+ email: string</text>
<text text-anchor="start" x="230" y="-201.6" font-family="Verdana" font-size="8.00" fill="#8b0000">+ password: string</text>
</g>
<!-- ArclinkLog -->
<g id="node5" class="node"><title>ArclinkLog</title>
<path fill="#fcf2e3" stroke="none" stroke-width="0.5" d="M200,-382C200,-382 170,-382 170,-382 164,-382 158,-376 158,-370 158,-370 158,-358 158,-358 158,-352 164,-346 170,-346 170,-346 200,-346 200,-346 206,-346 212,-352 212,-358 212,-358 212,-370 212,-370 212,-376 206,-382 200,-382"/>
<text text-anchor="middle" x="185" y="-362.1" font-family="Verdana" font-size="8.00">ArclinkLog</text>
</g>
<!-- ArclinkLog&#45;&gt;ArclinkRequest -->
<g id="edge1" class="edge"><title>ArclinkLog&#45;&gt;ArclinkRequest</title>
<path fill="none" stroke="#000000" d="M175.404,-345.801C171.215,-338.294 165.95,-328.858 160.218,-318.586"/>
<polygon fill="#000000" stroke="#000000" points="163.237,-316.812 155.308,-309.785 157.124,-320.223 163.237,-316.812"/>
</g>
<!-- ArclinkLog&#45;&gt;ArclinkUser -->
<g id="edge4" class="edge"><title>ArclinkLog&#45;&gt;ArclinkUser</title>
<path fill="none" stroke="#000000" d="M194.721,-345.801C206.315,-325.288 226.046,-290.381 241.324,-263.35"/>
<polygon fill="#000000" stroke="#000000" points="244.443,-264.945 246.316,-254.517 238.349,-261.501 244.443,-264.945"/>
</g>
</g>
</svg>
