<?xml version="1.0" encoding="UTF-8" standalone="no"?>
<!DOCTYPE svg PUBLIC "-//W3C//DTD SVG 1.1//EN"
 "http://www.w3.org/Graphics/SVG/1.1/DTD/svg11.dtd">
<!-- Generated by graphviz version 2.30.1 (20150306.0020)
 -->
<!-- Title: G Pages: 1 -->
<svg width="308pt" height="270pt"
 viewBox="0.00 0.00 308.00 270.00" xmlns="http://www.w3.org/2000/svg" xmlns:xlink="http://www.w3.org/1999/xlink">
<g id="graph0" class="graph" transform="scale(1 1) rotate(0) translate(4 266)">
<title>G</title>
<polygon fill="white" stroke="white" points="-4,5 -4,-266 305,-266 305,5 -4,5"/>
<!-- Route -->
<g id="node1" class="node"><title>Route</title>
<path fill="#fcf2e3" stroke="none" stroke-width="0.5" d="M170,-189.5C170,-189.5 42,-189.5 42,-189.5 36,-189.5 30,-183.5 30,-177.5 30,-177.5 30,-110.5 30,-110.5 30,-104.5 36,-98.5 42,-98.5 42,-98.5 170,-98.5 170,-98.5 176,-98.5 182,-104.5 182,-110.5 182,-110.5 182,-177.5 182,-177.5 182,-183.5 176,-189.5 170,-189.5"/>
<text text-anchor="start" x="95" y="-177.1" font-family="Verdana" font-size="8.00">Route</text>
<text text-anchor="start" x="40" y="-166.6" font-family="Verdana" font-size="8.00" fill="#8b0000">+ publicID: string</text>
<text text-anchor="start" x="40" y="-156.6" font-family="Verdana" font-size="8.00" fill="#8b0000">+ networkCode: string</text>
<text text-anchor="start" x="40" y="-146.6" font-family="Verdana" font-size="8.00" fill="#8b0000">+ stationCode: string</text>
<text text-anchor="start" x="40" y="-136.6" font-family="Verdana" font-size="8.00" fill="#8b0000">+ locationCode: string</text>
<text text-anchor="start" x="40" y="-126.6" font-family="Verdana" font-size="8.00" fill="#8b0000">+ streamCode: string</text>
<text text-anchor="start" x="40" y="-116.6" font-family="Verdana" font-size="8.00" fill="#8b0000">+ routeArclink: RouteArclink [0..*]</text>
<text text-anchor="start" x="40" y="-106.6" font-family="Verdana" font-size="8.00" fill="#8b0000">+ routeSeedlink: RouteSeedlink [0..*]</text>
</g>
<!-- RouteArclink -->
<g id="node2" class="node"><title>RouteArclink</title>
<path fill="#fcf2e3" stroke="none" stroke-width="0.5" d="M88,-61.5C88,-61.5 12,-61.5 12,-61.5 6,-61.5 0,-55.5 0,-49.5 0,-49.5 0,-12.5 0,-12.5 0,-6.5 6,-0.5 12,-0.5 12,-0.5 88,-0.5 88,-0.5 94,-0.5 100,-6.5 100,-12.5 100,-12.5 100,-49.5 100,-49.5 100,-55.5 94,-61.5 88,-61.5"/>
<text text-anchor="start" x="27" y="-49.1" font-family="Verdana" font-size="8.00">RouteArclink</text>
<text text-anchor="start" x="10" y="-38.6" font-family="Verdana" font-size="8.00" fill="#8b0000">+ address: string</text>
<text text-anchor="start" x="10" y="-28.6" font-family="Verdana" font-size="8.00" fill="#8b0000">+ start: datetime</text>
<text text-anchor="start" x="10" y="-18.6" font-family="Verdana" font-size="8.00" fill="#8b0000">+ end: datetime &#160;[0..1]</text>
<text text-anchor="start" x="10" y="-8.6" font-family="Verdana" font-size="8.00" fill="#8b0000">+ priority: int &#160;[0..1]</text>
</g>
<!-- Route&#45;&gt;RouteArclink -->
<g id="edge2" class="edge"><title>Route&#45;&gt;RouteArclink</title>
<path fill="none" stroke="#000000" d="M83.5453,-98.4916C78.893,-89.2701 74.028,-79.6268 69.492,-70.636"/>
<polygon fill="#000000" stroke="#000000" points="72.5362,-68.8994 64.907,-61.5478 66.2865,-72.0525 72.5362,-68.8994"/>
</g>
<!-- RouteSeedlink -->
<g id="node3" class="node"><title>RouteSeedlink</title>
<path fill="#fcf2e3" stroke="none" stroke-width="0.5" d="M194,-51.5C194,-51.5 130,-51.5 130,-51.5 124,-51.5 118,-45.5 118,-39.5 118,-39.5 118,-22.5 118,-22.5 118,-16.5 124,-10.5 130,-10.5 130,-10.5 194,-10.5 194,-10.5 200,-10.5 206,-16.5 206,-22.5 206,-22.5 206,-39.5 206,-39.5 206,-45.5 200,-51.5 194,-51.5"/>
<text text-anchor="start" x="136" y="-39.1" font-family="Verdana" font-size="8.00">RouteSeedlink</text>
<text text-anchor="start" x="128" y="-28.6" font-family="Verdana" font-size="8.00" fill="#8b0000">+ address: string</text>
<text text-anchor="start" x="128" y="-18.6" font-family="Verdana" font-size="8.00" fill="#8b0000">+ priority: int &#160;[0..1]</text>
</g>
<!-- Route&#45;&gt;RouteSeedlink -->
<g id="edge3" class="edge"><title>Route&#45;&gt;RouteSeedlink</title>
<path fill="none" stroke="#000000" d="M128.455,-98.4916C134.873,-85.769 141.697,-72.2437 147.502,-60.7365"/>
<polygon fill="#000000" stroke="#000000" points="150.729,-62.1116 152.108,-51.607 144.479,-58.9586 150.729,-62.1116"/>
</g>
<!-- Access -->
<g id="node4" class="node"><title>Access</title>
<path fill="#fcf2e3" stroke="none" stroke-width="0.5" d="M288,-189.5C288,-189.5 212,-189.5 212,-189.5 206,-189.5 200,-183.5 200,-177.5 200,-177.5 200,-110.5 200,-110.5 200,-104.5 206,-98.5 212,-98.5 212,-98.5 288,-98.5 288,-98.5 294,-98.5 300,-104.5 300,-110.5 300,-110.5 300,-177.5 300,-177.5 300,-183.5 294,-189.5 288,-189.5"/>
<text text-anchor="start" x="237.5" y="-177.1" font-family="Verdana" font-size="8.00">Access</text>
<text text-anchor="start" x="210" y="-166.6" font-family="Verdana" font-size="8.00" fill="#8b0000">+ networkCode: string</text>
<text text-anchor="start" x="210" y="-156.6" font-family="Verdana" font-size="8.00" fill="#8b0000">+ stationCode: string</text>
<text text-anchor="start" x="210" y="-146.6" font-family="Verdana" font-size="8.00" fill="#8b0000">+ locationCode: string</text>
<text text-anchor="start" x="210" y="-136.6" font-family="Verdana" font-size="8.00" fill="#8b0000">+ streamCode: string</text>
<text text-anchor="start" x="210" y="-126.6" font-family="Verdana" font-size="8.00" fill="#8b0000">+ user: string</text>
<text text-anchor="start" x="210" y="-116.6" font-family="Verdana" font-size="8.00" fill="#8b0000">+ start: datetime</text>
<text text-anchor="start" x="210" y="-106.6" font-family="Verdana" font-size="8.00" fill="#8b0000">+ end: datetime &#160;[0..1]</text>
</g>
<!-- Routing -->
<g id="node5" class="node"><title>Routing</title>
<path fill="#fcf2e3" stroke="none" stroke-width="0.5" d="M193,-262C193,-262 163,-262 163,-262 157,-262 151,-256 151,-250 151,-250 151,-238 151,-238 151,-232 157,-226 163,-226 163,-226 193,-226 193,-226 199,-226 205,-232 205,-238 205,-238 205,-250 205,-250 205,-256 199,-262 193,-262"/>
<text text-anchor="middle" x="178" y="-242.1" font-family="Verdana" font-size="8.00">Routing</text>
</g>
<!-- Routing&#45;&gt;Route -->
<g id="edge1" class="edge"><title>Routing&#45;&gt;Route</title>
<path fill="none" stroke="#000000" d="M165.459,-225.93C159.609,-217.968 152.296,-208.014 144.819,-197.837"/>
<polygon fill="#000000" stroke="#000000" points="147.555,-195.649 138.813,-189.663 141.913,-199.794 147.555,-195.649"/>
</g>
<!-- Routing&#45;&gt;Access -->
<g id="edge4" class="edge"><title>Routing&#45;&gt;Access</title>
<path fill="none" stroke="#000000" d="M190.541,-225.93C196.391,-217.968 203.704,-208.014 211.181,-197.837"/>
<polygon fill="#000000" stroke="#000000" points="214.087,-199.794 217.187,-189.663 208.445,-195.649 214.087,-199.794"/>
</g>
</g>
</svg>
